<?xml version="1.0" standalone="no"?>
<!DOCTYPE svg PUBLIC "-//W3C//DTD SVG 1.1//EN" 
  "http://www.w3.org/Graphics/SVG/1.1/DTD/svg11.dtd">
<svg width="66%" height="66%" viewBox="-500 -500 1000 1000" version="1.1"
     xmlns="http://www.w3.org/2000/svg" xmlns:xlink="http://www.w3.org/1999/xlink">
  <title>
  </title>
  <desc>
  </desc>

  <defs>
    <!-- a tick to represent one day - short and long -->
    <line id="daytick" x1="0" y1="-375" x2="0" y2="-415" stroke="black" stroke-width="1" />
    
    <!-- this defines a small dot which appears at days 5, 10, 15, 20, 25 plus the last day in the month.
         it's rotated a half-day backwards, so it's centered in the middle of the day -->
    <circle id="smalldaydot" cx="0" cy="-420" r="2" stroke="black" fill="black" stroke-width="1" transform="rotate(-000.49315)" />
    
    <g id="5dayticks">
      <desc>
        A group of five day ticks, each one rotated by 360/365 degrees
      </desc>
      
      <use xlink:href="#daytick" transform=""/>
      <use xlink:href="#daytick" transform="rotate(000.98630)" />
      <use xlink:href="#daytick" transform="rotate(001.97260)" />
      <use xlink:href="#daytick" transform="rotate(002.95890)" />
      <use xlink:href="#daytick" transform="rotate(003.94520)" />
    </g>
    
    <g id="30dayticks">
      <desc>
        A group of thirty day ticks, comprising six 5dayticks, each rotated by 5*360/365 degrees
      </desc>
      
      <use xlink:href="#5dayticks"/>
      <use xlink:href="#5dayticks" transform="rotate(004.93150)" />
      <use xlink:href="#5dayticks" transform="rotate(009.86301)" />
      <use xlink:href="#5dayticks" transform="rotate(014.79452)" />
      <use xlink:href="#5dayticks" transform="rotate(019.72602)" />
      <use xlink:href="#5dayticks" transform="rotate(024.65753)" />
    </g>
    
    <g id="monthticks" stroke="black" style="font-family: Arial; font-size:16;">
      <desc>
        A small dot every five days (so at 5, 15, 20, 25 days) plus the numbers 5, 10, 15, 20 and 25.
        Also has a long tick for the start of the month, which ends at the outer circle
      </desc>
      
      <!-- long tick to mark the start of a month -->
      <line x1="0" y1="-495" x2="0" y2="-375" stroke="black" stroke-width="2" />
      
      <use xlink:href="#smalldaydot" transform="rotate(004.93150)" />
      <use xlink:href="#smalldaydot" transform="rotate(009.86301)" />
      <use xlink:href="#smalldaydot" transform="rotate(014.79452)" />
      <use xlink:href="#smalldaydot" transform="rotate(019.72602)" />
      <use xlink:href="#smalldaydot" transform="rotate(024.65753)" />
      
      <text transform="rotate(4)">
        <textPath xlink:href="#daynumberpath">5</textPath>
      </text>
      <text transform="rotate(8)">
        <textPath xlink:href="#daynumberpath">10</textPath>
      </text>
      <text transform="rotate(13)">
        <textPath xlink:href="#daynumberpath">15</textPath>
      </text>
      <text transform="rotate(18)">
        <textPath xlink:href="#daynumberpath">20</textPath>
      </text>
      <text transform="rotate(23)">
        <textPath xlink:href="#daynumberpath">25</textPath>
      </text>
    </g>
    
    <g id="monthend30">
      <desc>
        A small dot and the number 30, for months with 30 days
      </desc>
      
      <use xlink:href="#smalldaydot" transform="rotate(029.50000)" />
      
      <text style="font-family: Arial; font-size:16;" transform="rotate(26.9)">
        <textPath xlink:href="#daynumberpath">30</textPath>
      </text>
    </g>
    
    <g id="monthend31">
      <desc>
        A small dot and the number 30, for months with 31 days
      </desc>
      
      <use xlink:href="#smalldaydot" transform="rotate(029.58904)" />
      
      <text style="font-family: Arial; font-size:16;" transform="rotate(27.9)">
        <textPath xlink:href="#daynumberpath">30</textPath>
      </text>
    </g>
    
    <!-- a path used when rendering the month names, rotated slightly to keep the first letter
         away from the thick month line-->
    <path id="monthnamepath" d="M0,-460 A460,460 0 0,1 460,0" transform="rotate(1)" />
    
    <!-- a path used when rendering the day numbers -->
    <path id="daynumberpath" d="M0,-428 A428,428 0 0,1 428,0" />
    
    <!-- a path used when rendering the week numbers -->
    <path id="weeknumberpath" d="M0,-320 A320,320 0 0,1 320,0" />
    
    <!-- a path used for writing arrow captions -->
    <path id="arrowcaptionpath1" d="M-20,-250 L-20,0" />
    <path id="arrowcaptionpath2" d="M-40,-250 L-40,0" />
    
    <g id="weekmarker">
      <desc>
        The week marker
      </desc>
      <line x1="0" y1="-290" x2="0" y2="-360" stroke="black" stroke-width="2" />
    </g>
    
    <g id="4weekmarkers">
      <desc>
        4 week markers
      </desc>
      <use xlink:href="#weekmarker" />
      <use xlink:href="#weekmarker" transform="rotate(06.90410)" />
      <use xlink:href="#weekmarker" transform="rotate(13.80821)" />
      <use xlink:href="#weekmarker" transform="rotate(20.71232)" />
    </g>
    <!-- arrowhead -->
    <marker id="arrowhead" viewBox="0 0 10 10" refX="3" refY="5" 
          markerUnits="strokeWidth" orient="auto"
          markerWidth="4" markerHeight="3">
        <polyline points="0,0 10,5 0,10 2,5" fill="black" />
    </marker>
    
    <g id="arrow">
      <polyline fill="none" stroke="black" stroke-width="5" 
                points="0, -60, 0, -270" marker-end="url(#arrowhead)" />
    </g>
  </defs>
  
  <!-- for testing paths -->
  <!--use xlink:href="#arrowcaptionpath1" stroke="red" fill="none" /-->
  <!--use xlink:href="#arrowcaptionpath2" stroke="red" fill="none" /-->
    
  
  
  
  
  
  
  
  <g>
    <desc>Concentric circles, including the main outline</desc>
    
    <!-- Outer circles -->
    <circle cx="0" cy="0" r="499" fill="none" stroke="grey" stroke-width="2" stroke-dasharray="10,10" />
    <circle cx="0" cy="0" r="495" fill="none" stroke="black" stroke-width="2" />
    
    <!-- Inner circles -->
    <circle cx="0" cy="0" r="375" fill="none" stroke="black" stroke-width="12" />
    <circle cx="0" cy="0" r="375" fill="none" stroke="grey" stroke-width="3" stroke-dasharray="10,10" />
    
    <!-- Centre dot -->
    <circle cx="0" cy="0" r="5" fill="black" stroke="black" stroke-width="1" />
  </g>
  
  <g>
    <desc>Smallest ticks, to represent days</desc>
    
    <!-- day ticks - 12 groups of 30 -->
    <use xlink:href="#30dayticks" />
    <use xlink:href="#30dayticks" transform="rotate(029.58904)" />
    <use xlink:href="#30dayticks" transform="rotate(059.17808)" />
    <use xlink:href="#30dayticks" transform="rotate(088.76712)" />
    <use xlink:href="#30dayticks" transform="rotate(118.35616)" />
    <use xlink:href="#30dayticks" transform="rotate(147.94520)" />
    <use xlink:href="#30dayticks" transform="rotate(177.53424)" />
    <use xlink:href="#30dayticks" transform="rotate(207.12328)" />
    <use xlink:href="#30dayticks" transform="rotate(236.71232)" />
    <use xlink:href="#30dayticks" transform="rotate(266.30136)" />
    <use xlink:href="#30dayticks" transform="rotate(295.89041)" />
    <use xlink:href="#30dayticks" transform="rotate(325.47945)" />
    
    <!-- and one final group of 5 days ticks -->
    <use xlink:href="#5dayticks" transform="rotate(355.06849)"/>
  </g>
  
  <g stroke="black" style="font-family: Arial; font-size:28;">
    <desc>
      12 months.
      The rotation of each one depends on the day in the year on which the month starts:
         rotation = day_of_year * 360 / 365
      
      Jan: 0
      Feb: 31
      Mar: 59
      Apr: 90
      May: 120
      Jun: 151
      Jul: 181
      Aug: 212
      Sep: 243
      Oct: 273
      Nov: 304
      Dec: 334
    </desc>
    
    <!-- January -->
    <use xlink:href="#monthticks" transform=""/>
    <use xlink:href="#monthend31" />
    
    <!-- February -->
    <use xlink:href="#monthticks" transform="rotate(030.58534)" />
    <!-- February doesn't need a monthend date - has fewer than 30 days -->
    
    <!-- March -->
    <use xlink:href="#monthticks" transform="rotate(058.19178)" />
    <use xlink:href="#monthend31" transform="rotate(058.19178)" />
    
    <!-- April -->
    <use xlink:href="#monthticks" transform="rotate(088.76712)" />
    <use xlink:href="#monthend30" transform="rotate(088.76712)" />
    
    <!-- May -->
    <use xlink:href="#monthticks" transform="rotate(118.35616)" />
    <use xlink:href="#monthend31" transform="rotate(118.35616)" />
    
    <!-- June -->
    <use xlink:href="#monthticks" transform="rotate(148.93150)" />
    <use xlink:href="#monthend30" transform="rotate(148.93150)" />
    
    <!-- July -->
    <use xlink:href="#monthticks" transform="rotate(178.52054)" />
    <use xlink:href="#monthend31" transform="rotate(178.52054)" />
    
    <!-- August -->
    <use xlink:href="#monthticks" transform="rotate(209.09589)" />
    <use xlink:href="#monthend31" transform="rotate(209.09589)" />
    
    <!-- September -->
    <use xlink:href="#monthticks" transform="rotate(239.67123)" />
    <use xlink:href="#monthend30" transform="rotate(239.67123)" />
    
    <!-- October -->
    <use xlink:href="#monthticks" transform="rotate(269.26027)" />
    <use xlink:href="#monthend31" transform="rotate(269.26027)" />
    
    <!-- November -->
    <use xlink:href="#monthticks" transform="rotate(299.83561)" />
    <use xlink:href="#monthend30" transform="rotate(299.83561)" />
    
    <!-- December -->
    <use xlink:href="#monthticks" transform="rotate(329.42465)" />
    <use xlink:href="#monthend31" transform="rotate(329.42465)" />
  </g>
  
  <g stroke="black" style="font-family: Arial; font-size:28;">
    <desc>Months</desc>
    
    <!-- January -->
    <text>
      <textPath xlink:href="#monthnamepath">January</textPath>
    </text>
    
    <!-- February -->
    <text transform="rotate(030.58534)">
      <textPath xlink:href="#monthnamepath">February</textPath>
    </text>
    
    <!-- March -->
    <text transform="rotate(058.19178)">
      <textPath xlink:href="#monthnamepath">March</textPath>
    </text>
    
    <!-- April -->
    <text transform="rotate(088.76712)">
      <textPath xlink:href="#monthnamepath">April</textPath>
    </text>
    
    <!-- May -->
    <text transform="rotate(118.35616)">
      <textPath xlink:href="#monthnamepath">May</textPath>
    </text>
    
    <!-- June -->
    <text transform="rotate(148.93150)">
      <textPath xlink:href="#monthnamepath">June</textPath>
    </text>
    
    <!-- July -->
    <text transform="rotate(178.52054)">
      <textPath xlink:href="#monthnamepath">July</textPath>
    </text>
    
    <!-- August -->
    <text transform="rotate(209.09589)">
      <textPath xlink:href="#monthnamepath">August</textPath>
    </text>
    
    <!-- September -->
    <text transform="rotate(239.67123)">
      <textPath xlink:href="#monthnamepath">September</textPath>
    </text>
    
    <!-- October -->
    <text transform="rotate(269.26027)">
      <textPath xlink:href="#monthnamepath">October</textPath>
    </text>
    
    <!-- November -->
    <text transform="rotate(299.83561)">
      <textPath xlink:href="#monthnamepath">November</textPath>
    </text>
    
    <!-- December -->
    <text transform="rotate(329.42465)">
      <textPath xlink:href="#monthnamepath">December</textPath>
    </text>
  </g>
  
  <g>
    <desc>inner contents</desc>
    
    <!-- week markers. 11 groups of 4 -->
    <use xlink:href="#4weekmarkers" />
    <use xlink:href="#4weekmarkers" transform="rotate(027.61643)" />
    <use xlink:href="#4weekmarkers" transform="rotate(055.23287)" />
    <use xlink:href="#4weekmarkers" transform="rotate(082.84931)" />
    <use xlink:href="#4weekmarkers" transform="rotate(110.46575)" />
    <use xlink:href="#4weekmarkers" transform="rotate(138.08219)" />
    <use xlink:href="#4weekmarkers" transform="rotate(165.69863)" />
    <use xlink:href="#4weekmarkers" transform="rotate(193.31506)" />
    <use xlink:href="#4weekmarkers" transform="rotate(220.93150)" />
    <use xlink:href="#4weekmarkers" transform="rotate(248.54794)" />
    <use xlink:href="#4weekmarkers" transform="rotate(276.16438)" />
    
    <!-- one final week marker for week 44 -->
    <use xlink:href="#weekmarker" transform="rotate(303.78082)" />
    
    <!-- two large arcs to surround the week markers -->
    <path d="M0,-290 A290,290 0 1,1 -241.03948,-161.24504" stroke="black" fill="none" />
    <path d="M0,-360 A360,360 0 1,1 -299.22143,-200.16626" stroke="black" fill="none" />
    
    <g stroke="black" style="font-family: Arial; font-size:16;">
      <text transform="rotate(-013.0)"><textPath xlink:href="#weeknumberpath">WEEKS</textPath></text>

      <text transform="rotate(002.6)"><textPath xlink:href="#weeknumberpath">1</textPath></text>
      <text transform="rotate(009.5)"><textPath xlink:href="#weeknumberpath">2</textPath></text>
      <text transform="rotate(016.4)"><textPath xlink:href="#weeknumberpath">3</textPath></text>
      <text transform="rotate(023.3)"><textPath xlink:href="#weeknumberpath">4</textPath></text>
      <text transform="rotate(030.2)"><textPath xlink:href="#weeknumberpath">5</textPath></text>
      <text transform="rotate(037.1)"><textPath xlink:href="#weeknumberpath">6</textPath></text>
      <text transform="rotate(044.0)"><textPath xlink:href="#weeknumberpath">7</textPath></text>
      <text transform="rotate(050.9)"><textPath xlink:href="#weeknumberpath">8</textPath></text>
      <text transform="rotate(057.8)"><textPath xlink:href="#weeknumberpath">9</textPath></text>
      <text transform="rotate(064.1)"><textPath xlink:href="#weeknumberpath">10</textPath></text>
      <text transform="rotate(071.0)"><textPath xlink:href="#weeknumberpath">11</textPath></text>
      <text transform="rotate(077.9)"><textPath xlink:href="#weeknumberpath">12</textPath></text>
      <text transform="rotate(084.8)"><textPath xlink:href="#weeknumberpath">13</textPath></text>
      <text transform="rotate(091.7)"><textPath xlink:href="#weeknumberpath">14</textPath></text>
      <text transform="rotate(098.6)"><textPath xlink:href="#weeknumberpath">15</textPath></text>
      <text transform="rotate(105.5)"><textPath xlink:href="#weeknumberpath">16</textPath></text>
      <text transform="rotate(112.4)"><textPath xlink:href="#weeknumberpath">17</textPath></text>
      <text transform="rotate(119.3)"><textPath xlink:href="#weeknumberpath">18</textPath></text>
      <text transform="rotate(126.2)"><textPath xlink:href="#weeknumberpath">19</textPath></text>
      <text transform="rotate(133.1)"><textPath xlink:href="#weeknumberpath">20</textPath></text>
      <text transform="rotate(140.0)"><textPath xlink:href="#weeknumberpath">21</textPath></text>
      <text transform="rotate(146.9)"><textPath xlink:href="#weeknumberpath">22</textPath></text>
      <text transform="rotate(153.8)"><textPath xlink:href="#weeknumberpath">23</textPath></text>
      <text transform="rotate(160.7)"><textPath xlink:href="#weeknumberpath">24</textPath></text>
      <text transform="rotate(167.7)"><textPath xlink:href="#weeknumberpath">25</textPath></text>
      <text transform="rotate(174.6)"><textPath xlink:href="#weeknumberpath">26</textPath></text>
      <text transform="rotate(181.5)"><textPath xlink:href="#weeknumberpath">27</textPath></text>
      <text transform="rotate(188.4)"><textPath xlink:href="#weeknumberpath">28</textPath></text>
      <text transform="rotate(195.2)"><textPath xlink:href="#weeknumberpath">29</textPath></text>
      <text transform="rotate(202.2)"><textPath xlink:href="#weeknumberpath">30</textPath></text>
      <text transform="rotate(209.0)"><textPath xlink:href="#weeknumberpath">31</textPath></text>
      <text transform="rotate(216.0)"><textPath xlink:href="#weeknumberpath">32</textPath></text>
      <text transform="rotate(222.9)"><textPath xlink:href="#weeknumberpath">33</textPath></text>
      <text transform="rotate(229.8)"><textPath xlink:href="#weeknumberpath">34</textPath></text>
      <text transform="rotate(236.7)"><textPath xlink:href="#weeknumberpath">35</textPath></text>
      <text transform="rotate(243.6)"><textPath xlink:href="#weeknumberpath">36</textPath></text>
      <text transform="rotate(250.5)"><textPath xlink:href="#weeknumberpath">37</textPath></text>
      <text transform="rotate(257.4)"><textPath xlink:href="#weeknumberpath">38</textPath></text>
      <text transform="rotate(264.3)"><textPath xlink:href="#weeknumberpath">39</textPath></text>
      <text transform="rotate(271.2)"><textPath xlink:href="#weeknumberpath">40</textPath></text>
      <text transform="rotate(278.1)"><textPath xlink:href="#weeknumberpath">41</textPath></text>
      <text transform="rotate(285.0)"><textPath xlink:href="#weeknumberpath">42</textPath></text>
      <text transform="rotate(291.9)"><textPath xlink:href="#weeknumberpath">43</textPath></text>
      <text transform="rotate(298.8)"><textPath xlink:href="#weeknumberpath">44</textPath></text>
    </g>
    
    <g stroke="none" style="font-family: Arial; font-size:15;">
      <desc>
        Arrows and their captions
      </desc>

      <use xlink:href="#arrow" />
      <text transform=""><textPath xlink:href="#arrowcaptionpath1">1ST DAY OF</textPath></text>
      <text transform=""><textPath xlink:href="#arrowcaptionpath2">LAST PERIOD</textPath></text>
  
      <use xlink:href="#arrow" transform="rotate(013.80821)" />
      <text transform="rotate(013.80821)"><textPath xlink:href="#arrowcaptionpath1">CONCEPTION</textPath></text>
  
      <use xlink:href="#arrow" transform="rotate(027.61643)" />
      <text transform="rotate(027.61643)"><textPath xlink:href="#arrowcaptionpath1">MISSED PERIOD</textPath></text>
  
      <use xlink:href="#arrow" transform="rotate(276.16438)" />
      <text transform="rotate(276.16438)"><textPath xlink:href="#arrowcaptionpath1">DUE DATE</textPath></text>
    </g>
  </g>
</svg>
